title,field_start_date,field_end_date,body
"Nobel Prize Lecture",2016-04-01T09:00:00,2016-04-01T12:00:00,"<p>We have the pleasure of cordially inviting the entire public to a lecture by this year's Nobel Prize Winner in Literature, our very own Professor Winifred Shakesknife, a renowned poet and playwright. She will be speaking on a wide range of themes including empowering Third-world female writers, transforming society and the effect of e-speak on writing in the 21st century.</p><p><b>Venue:</b> Queen Elizabeth II Auditorium<br><b>Tickets:<b> Free admission<br><b>Bookings:</b> Call 0800 008 800</p>"
"Adele in Concert",2016-04-05T19:30:00,2016-04-05T23:00:00,"<p>Superstar Adele will be playing an intimate gig for our staff and students.</p><p><b>Venue:</b> Students Union Building (SUB).<br><b>Tickets:</b> £9.99</p><p>Gates open at 7.00pm</p>"
"Uni Open Days",2016-04-13T08:00:00,2016-04-14T17:00:00,"<p>If you're considering phpEdu Demo University, a visit is an absolute must. Whether it's the warm and friendly atmosphere or the infectious buzz of the city, there is no better way to experience it.</p><p>Open days are your chance to get a real first-hand experience of the university and the city.</p>"